{
  "project_info": {
    "project_number": "17598898735",
    "firebase_url": "https://edunitas-b04ba.firebaseio.com",
    "project_id": "edunitas-b04ba",
    "storage_bucket": "edunitas-b04ba.appspot.com"
  },
  "client": [
    {
      "client_info": {
        "mobilesdk_app_id": "1:17598898735:android:521398a15be35297",
        "android_client_info": {
          "package_name": "com.example.windows.edunitas"
        }
      },
      "oauth_client": [
        {
          "client_id": "17598898735-2pbtq2haua540phs77ff59qrbihj4vra.apps.googleusercontent.com",
          "client_type": 1,
          "android_info": {
            "package_name": "com.example.windows.edunitas",
            "certificate_hash": "4a8d97c02e73ecd0ebf30b33ee2c1a9d2f385c7d"
          }
        },
        {
          "client_id": "17598898735-o2to0rleqooli69jqjrjhekjrq0sa6gh.apps.googleusercontent.com",
          "client_type": 3
        }
      ],
      "api_key": [
        {
          "current_key": "AIzaSyA2YgukDejhhx6X-DAoHhlnOo05RHdXPrM"
        }
      ],
      "services": {
        "analytics_service": {
          "status": 1
        },
        "appinvite_service": {
          "status": 2,
          "other_platform_oauth_client": [
            {
              "client_id": "17598898735-o2to0rleqooli69jqjrjhekjrq0sa6gh.apps.googleusercontent.com",
              "client_type": 3
            }
          ]
        },
        "ads_service": {
          "status": 2
        }
      }
    }
  ],
  "configuration_version": "1"
}